…
    ## 
    ## Attaching package: 'dplyr'

    ## The following objects are masked from 'package:stats':
    ## 
    ##     filter, lag

    ## The following objects are masked from 'package:base':
    ## 
    ##     intersect, setdiff, setequal, union

    ## # A tibble: 4,334 x 16
    ## # Groups:   name [5]
    ##        X team_name game_date season period minutes_remaini~
    ##    <int> <fct>     <fct>      <int>  <int>            <int>
    ##  1     1 Golden S~ 12/15/16    2016      3                3
    ##  2     2 Golden S~ 10/28/16    2016      3                9
    ##  3     3 Golden S~ 11/1/16     2016      2                5
    ##  4     4 Golden S~ 12/1/16     2016      3                5
    ##  5     5 Golden S~ 4/4/17      2016      3                2
    ##  6     6 Golden S~ 11/19/16    2016      4                5
    ##  7     7 Golden S~ 11/21/16    2016      3                9
    ##  8     8 Golden S~ 3/29/17     2016      2                1
    ##  9     9 Golden S~ 11/25/16    2016      3               10
    ## 10    10 Golden S~ 12/28/16    2016      3                3
    ## # ... with 4,324 more rows, and 10 more variables:
    ## #   seconds_remaining <int>, shot_made_flag <fct>, action_type <fct>,
    ## #   shot_type <fct>, shot_distance <int>, opponent <fct>, x <int>,
    ## #   y <int>, name <fct>, minute <int>
…
